EESchema Schematic File Version 4
LIBS:usb-ftdi-ft230xs-cache
EELAYER 30 0
EELAYER END
$Descr A4 11693 8268
encoding utf-8
Sheet 1 1
Title ""
Date ""
Rev ""
Comp ""
Comment1 ""
Comment2 ""
Comment3 ""
Comment4 ""
$EndDescr
$Comp
L Device:R R2
U 1 1 5E5A4DA6
P 4100 3950
F 0 "R2" V 3893 3950 50  0000 C CNN
F 1 "49" V 3984 3950 50  0000 C CNN
F 2 "Resistors_SMD:R_1206_HandSoldering" V 4030 3950 50  0001 C CNN
F 3 "~" H 4100 3950 50  0001 C CNN
	1    4100 3950
	0    1    1    0   
$EndComp
$Comp
L Device:R R4
U 1 1 5E5ABA4E
P 6475 3950
F 0 "R4" V 6682 3950 50  0000 C CNN
F 1 "49" V 6591 3950 50  0000 C CNN
F 2 "Resistors_SMD:R_1206_HandSoldering" V 6405 3950 50  0001 C CNN
F 3 "~" H 6475 3950 50  0001 C CNN
	1    6475 3950
	0    -1   -1   0   
$EndComp
$Comp
L Device:C C3
U 1 1 5E5ABEDE
P 6850 4100
F 0 "C3" H 6965 4146 50  0000 L CNN
F 1 "10pF" H 6965 4055 50  0000 L CNN
F 2 "Capacitors_SMD:C_1206_HandSoldering" H 6888 3950 50  0001 C CNN
F 3 "~" H 6850 4100 50  0001 C CNN
	1    6850 4100
	1    0    0    -1  
$EndComp
$Comp
L Device:C C1
U 1 1 5E5ACA14
P 3750 4100
F 0 "C1" H 3865 4146 50  0000 L CNN
F 1 "10pF" H 3865 4055 50  0000 L CNN
F 2 "Capacitors_SMD:C_1206_HandSoldering" H 3788 3950 50  0001 C CNN
F 3 "~" H 3750 4100 50  0001 C CNN
	1    3750 4100
	1    0    0    -1  
$EndComp
$Comp
L Connector:Conn_01x04_Male J2
U 1 1 5E5AE5B8
P 7775 4325
F 0 "J2" H 7883 4606 50  0000 C CNN
F 1 "USB" H 7883 4515 50  0000 C CNN
F 2 "usb-ftdi-ft230xs:USB_A_Plain" H 7775 4325 50  0001 C CNN
F 3 "~" H 7775 4325 50  0001 C CNN
	1    7775 4325
	1    0    0    -1  
$EndComp
$Comp
L Device:C C2
U 1 1 5E5ACE98
P 6400 3500
F 0 "C2" H 6515 3546 50  0000 L CNN
F 1 "1uF" H 6515 3455 50  0000 L CNN
F 2 "Capacitors_SMD:C_1206_HandSoldering" H 6438 3350 50  0001 C CNN
F 3 "~" H 6400 3500 50  0001 C CNN
	1    6400 3500
	1    0    0    -1  
$EndComp
$Comp
L Device:LED D1
U 1 1 5E5B2225
P 5025 2300
F 0 "D1" H 5018 2516 50  0000 C CNN
F 1 "LED" H 5018 2425 50  0000 C CNN
F 2 "LEDs:LED_1206_HandSoldering" H 5025 2300 50  0001 C CNN
F 3 "~" H 5025 2300 50  0001 C CNN
	1    5025 2300
	1    0    0    -1  
$EndComp
$Comp
L Device:R R3
U 1 1 5E5B39A1
P 5550 2300
F 0 "R3" V 5757 2300 50  0000 C CNN
F 1 "499" V 5666 2300 50  0000 C CNN
F 2 "Resistors_SMD:R_1206_HandSoldering" V 5480 2300 50  0001 C CNN
F 3 "~" H 5550 2300 50  0001 C CNN
	1    5550 2300
	0    -1   -1   0   
$EndComp
Wire Wire Line
	7975 4225 8550 4225
Wire Wire Line
	7975 4325 8550 4325
Wire Wire Line
	7975 4425 8550 4425
Wire Wire Line
	7975 4525 8550 4525
Text Label 8550 4225 2    50   ~ 0
5V
Text Label 8550 4525 2    50   ~ 0
GND
Text Label 8550 4425 2    50   ~ 0
USP
Text Label 8550 4325 2    50   ~ 0
USM
NoConn ~ 5975 3250
NoConn ~ 5975 3350
NoConn ~ 5975 3450
NoConn ~ 4575 3850
Wire Wire Line
	5975 3950 6325 3950
Wire Wire Line
	4575 3950 4250 3950
Wire Wire Line
	6625 3950 6850 3950
Wire Wire Line
	3950 3950 3750 3950
Connection ~ 6850 3950
Wire Wire Line
	6850 3950 7250 3950
Connection ~ 3750 3950
Wire Wire Line
	3750 3950 3275 3950
Wire Wire Line
	3750 4250 3750 4500
Wire Wire Line
	6850 4250 6850 4525
Text Label 3750 4500 0    50   ~ 0
GND
Text Label 6850 4525 0    50   ~ 0
GND
Text Label 7250 3950 2    50   ~ 0
USM
Text Label 3275 3950 0    50   ~ 0
USP
Text Label 3275 3250 0    50   ~ 0
TXD
Wire Wire Line
	5700 2300 5950 2300
Wire Wire Line
	4875 2300 4700 2300
Wire Wire Line
	5175 2300 5400 2300
Text Label 4325 2300 0    50   ~ 0
GND
Text Label 6250 2300 2    50   ~ 0
5V
Wire Wire Line
	5975 3650 6400 3650
Wire Wire Line
	5975 3550 6175 3550
Wire Wire Line
	6175 3550 6175 3350
Wire Wire Line
	6175 3350 6400 3350
Wire Wire Line
	6400 3350 7250 3350
Connection ~ 6400 3350
Wire Wire Line
	5975 3850 6850 3850
Text Label 7250 3850 2    50   ~ 0
3V3
Wire Wire Line
	5975 3750 6850 3750
Wire Wire Line
	6850 3750 6850 3850
Connection ~ 6850 3850
Wire Wire Line
	4575 3450 3275 3450
Text Label 3275 3450 0    50   ~ 0
3V3
Wire Wire Line
	4575 3650 3275 3650
Text Label 3275 3650 0    50   ~ 0
GND
Wire Wire Line
	4575 3550 3275 3550
Text Label 3275 3550 0    50   ~ 0
RXD
$Comp
L power:PWR_FLAG #FLG0101
U 1 1 5E5DECE4
P 4700 2300
F 0 "#FLG0101" H 4700 2375 50  0001 C CNN
F 1 "PWR_FLAG" H 4700 2473 50  0000 C CNN
F 2 "" H 4700 2300 50  0001 C CNN
F 3 "~" H 4700 2300 50  0001 C CNN
	1    4700 2300
	1    0    0    -1  
$EndComp
Connection ~ 4700 2300
Wire Wire Line
	4700 2300 4325 2300
$Comp
L power:PWR_FLAG #FLG0102
U 1 1 5E5DF74B
P 5950 2300
F 0 "#FLG0102" H 5950 2375 50  0001 C CNN
F 1 "PWR_FLAG" H 5950 2473 50  0000 C CNN
F 2 "" H 5950 2300 50  0001 C CNN
F 3 "~" H 5950 2300 50  0001 C CNN
	1    5950 2300
	1    0    0    -1  
$EndComp
Connection ~ 5950 2300
Wire Wire Line
	5950 2300 6250 2300
Connection ~ 6400 3650
Text Label 7250 3650 2    50   ~ 0
5V
Text Label 7250 3350 2    50   ~ 0
GND
$Comp
L usb-ftdi-ft230xs:FT230XS U1
U 1 1 5E5ABBB6
P 5275 3600
F 0 "U1" H 5275 4317 50  0000 C CNN
F 1 "FT230XS" H 5275 4226 50  0000 C CNN
F 2 "usb-ftdi-ft230xs:FT230XS" H 5300 2950 50  0001 C CNN
F 3 "" H 5275 3600 50  0001 C CNN
	1    5275 3600
	1    0    0    -1  
$EndComp
$Comp
L Connector:Conn_01x06_Female J1
U 1 1 5E5AF11C
P 7775 2275
F 0 "J1" H 7667 1750 50  0000 C CNN
F 1 "Conn_01x06_Female" H 7667 1841 50  0000 C CNN
F 2 "usb-ftdi-ft230xs:6W_PTH_SOCKET" H 7775 2275 50  0001 C CNN
F 3 "~" H 7775 2275 50  0001 C CNN
	1    7775 2275
	-1   0    0    1   
$EndComp
Text Label 8425 1975 2    50   ~ 0
GND
Text Label 8425 2075 2    50   ~ 0
CTS
Text Label 8425 2175 2    50   ~ 0
VOUT
Text Label 8425 2275 2    50   ~ 0
TXD
Text Label 8425 2375 2    50   ~ 0
RXD
Text Label 8425 2475 2    50   ~ 0
RTS
Wire Wire Line
	7975 2475 8425 2475
Wire Wire Line
	7975 2375 8425 2375
Wire Wire Line
	7975 2275 8425 2275
Wire Wire Line
	7975 2175 8425 2175
Wire Wire Line
	7975 2075 8425 2075
Wire Wire Line
	7975 1975 8425 1975
Wire Wire Line
	4575 3250 3275 3250
Text Label 3275 3350 0    50   ~ 0
RTS
Text Label 3275 3750 0    50   ~ 0
CTS
$Comp
L Switch:SW_SPDT SW1
U 1 1 5E86FDDD
P 7925 3550
F 0 "SW1" H 7925 3225 50  0000 C CNN
F 1 "SW_SPDT" H 7925 3316 50  0000 C CNN
F 2 "usb-ftdi-ft230xs:SW_SPDT-AYZ0102AGRLC" H 7925 3550 50  0001 C CNN
F 3 "~" H 7925 3550 50  0001 C CNN
	1    7925 3550
	-1   0    0    1   
$EndComp
Wire Wire Line
	7475 3650 7475 3450
Wire Wire Line
	7475 3450 7725 3450
Wire Wire Line
	6400 3650 7475 3650
Wire Wire Line
	7625 3850 7625 3650
Wire Wire Line
	7625 3650 7725 3650
Wire Wire Line
	6850 3850 7625 3850
Wire Wire Line
	8125 3550 8725 3550
Text Label 8700 3550 2    50   ~ 0
VOUT
Wire Wire Line
	3275 3750 4575 3750
$Comp
L Device:R R1
U 1 1 5E8B26B8
P 3975 3350
F 0 "R1" V 3768 3350 50  0000 C CNN
F 1 "0" V 3859 3350 50  0000 C CNN
F 2 "Resistors_SMD:R_1206_HandSoldering" V 3905 3350 50  0001 C CNN
F 3 "~" H 3975 3350 50  0001 C CNN
	1    3975 3350
	0    1    1    0   
$EndComp
Wire Wire Line
	4575 3350 4125 3350
Wire Wire Line
	3825 3350 3275 3350
$EndSCHEMATC
