(export (version D)
  (design
    (source /Users/kris/kicad/usb-ftdi-ft230xs/usb-ftdi-ft230xs.sch)
    (date "2020 April 05, Sunday 16:26:08")
    (tool "Eeschema (5.1.4-0-10_14)")
    (sheet (number 1) (name /) (tstamps /)
      (title_block
        (title)
        (company)
        (rev)
        (date)
        (source usb-ftdi-ft230xs.sch)
        (comment (number 1) (value ""))
        (comment (number 2) (value ""))
        (comment (number 3) (value ""))
        (comment (number 4) (value "")))))
  (components
    (comp (ref R2)
      (value 49)
      (footprint Resistors_SMD:R_1206_HandSoldering)
      (datasheet ~)
      (libsource (lib Device) (part R) (description Resistor))
      (sheetpath (names /) (tstamps /))
      (tstamp 5E5A4DA6))
    (comp (ref R4)
      (value 49)
      (footprint Resistors_SMD:R_1206_HandSoldering)
      (datasheet ~)
      (libsource (lib Device) (part R) (description Resistor))
      (sheetpath (names /) (tstamps /))
      (tstamp 5E5ABA4E))
    (comp (ref C3)
      (value 10pF)
      (footprint Capacitors_SMD:C_1206_HandSoldering)
      (datasheet ~)
      (libsource (lib Device) (part C) (description "Unpolarized capacitor"))
      (sheetpath (names /) (tstamps /))
      (tstamp 5E5ABEDE))
    (comp (ref C1)
      (value 10pF)
      (footprint Capacitors_SMD:C_1206_HandSoldering)
      (datasheet ~)
      (libsource (lib Device) (part C) (description "Unpolarized capacitor"))
      (sheetpath (names /) (tstamps /))
      (tstamp 5E5ACA14))
    (comp (ref J2)
      (value USB)
      (footprint usb-ftdi-ft230xs:USB_A_Plain)
      (datasheet ~)
      (libsource (lib Connector) (part Conn_01x04_Male) (description "Generic connector, single row, 01x04, script generated (kicad-library-utils/schlib/autogen/connector/)"))
      (sheetpath (names /) (tstamps /))
      (tstamp 5E5AE5B8))
    (comp (ref C2)
      (value 1uF)
      (footprint Capacitors_SMD:C_1206_HandSoldering)
      (datasheet ~)
      (libsource (lib Device) (part C) (description "Unpolarized capacitor"))
      (sheetpath (names /) (tstamps /))
      (tstamp 5E5ACE98))
    (comp (ref D1)
      (value LED)
      (footprint LEDs:LED_1206_HandSoldering)
      (datasheet ~)
      (libsource (lib Device) (part LED) (description "Light emitting diode"))
      (sheetpath (names /) (tstamps /))
      (tstamp 5E5B2225))
    (comp (ref R3)
      (value 499)
      (footprint Resistors_SMD:R_1206_HandSoldering)
      (datasheet ~)
      (libsource (lib Device) (part R) (description Resistor))
      (sheetpath (names /) (tstamps /))
      (tstamp 5E5B39A1))
    (comp (ref U1)
      (value FT230XS)
      (footprint usb-ftdi-ft230xs:FT230XS)
      (libsource (lib usb-ftdi-ft230xs) (part FT230XS) (description ""))
      (sheetpath (names /) (tstamps /))
      (tstamp 5E5ABBB6))
    (comp (ref J1)
      (value Conn_01x06_Female)
      (footprint usb-ftdi-ft230xs:6W_PTH_SOCKET)
      (datasheet ~)
      (libsource (lib Connector) (part Conn_01x06_Female) (description "Generic connector, single row, 01x06, script generated (kicad-library-utils/schlib/autogen/connector/)"))
      (sheetpath (names /) (tstamps /))
      (tstamp 5E5AF11C))
    (comp (ref SW1)
      (value SW_SPDT)
      (footprint usb-ftdi-ft230xs:SW_SPDT-AYZ0102AGRLC)
      (datasheet ~)
      (libsource (lib Switch) (part SW_SPDT) (description "Switch, single pole double throw"))
      (sheetpath (names /) (tstamps /))
      (tstamp 5E86FDDD))
    (comp (ref R1)
      (value 0)
      (footprint Resistors_SMD:R_1206_HandSoldering)
      (datasheet ~)
      (libsource (lib Device) (part R) (description Resistor))
      (sheetpath (names /) (tstamps /))
      (tstamp 5E8B26B8)))
  (libparts
    (libpart (lib Connector) (part Conn_01x04_Male)
      (description "Generic connector, single row, 01x04, script generated (kicad-library-utils/schlib/autogen/connector/)")
      (docs ~)
      (footprints
        (fp Connector*:*_1x??_*))
      (fields
        (field (name Reference) J)
        (field (name Value) Conn_01x04_Male))
      (pins
        (pin (num 1) (name Pin_1) (type passive))
        (pin (num 2) (name Pin_2) (type passive))
        (pin (num 3) (name Pin_3) (type passive))
        (pin (num 4) (name Pin_4) (type passive))))
    (libpart (lib Connector) (part Conn_01x06_Female)
      (description "Generic connector, single row, 01x06, script generated (kicad-library-utils/schlib/autogen/connector/)")
      (docs ~)
      (footprints
        (fp Connector*:*_1x??_*))
      (fields
        (field (name Reference) J)
        (field (name Value) Conn_01x06_Female))
      (pins
        (pin (num 1) (name Pin_1) (type passive))
        (pin (num 2) (name Pin_2) (type passive))
        (pin (num 3) (name Pin_3) (type passive))
        (pin (num 4) (name Pin_4) (type passive))
        (pin (num 5) (name Pin_5) (type passive))
        (pin (num 6) (name Pin_6) (type passive))))
    (libpart (lib Device) (part C)
      (description "Unpolarized capacitor")
      (docs ~)
      (footprints
        (fp C_*))
      (fields
        (field (name Reference) C)
        (field (name Value) C))
      (pins
        (pin (num 1) (name ~) (type passive))
        (pin (num 2) (name ~) (type passive))))
    (libpart (lib Device) (part LED)
      (description "Light emitting diode")
      (docs ~)
      (footprints
        (fp LED*)
        (fp LED_SMD:*)
        (fp LED_THT:*))
      (fields
        (field (name Reference) D)
        (field (name Value) LED))
      (pins
        (pin (num 1) (name K) (type passive))
        (pin (num 2) (name A) (type passive))))
    (libpart (lib Device) (part R)
      (description Resistor)
      (docs ~)
      (footprints
        (fp R_*))
      (fields
        (field (name Reference) R)
        (field (name Value) R))
      (pins
        (pin (num 1) (name ~) (type passive))
        (pin (num 2) (name ~) (type passive))))
    (libpart (lib Switch) (part SW_SPDT)
      (description "Switch, single pole double throw")
      (docs ~)
      (fields
        (field (name Reference) SW)
        (field (name Value) SW_SPDT))
      (pins
        (pin (num 1) (name A) (type passive))
        (pin (num 2) (name B) (type passive))
        (pin (num 3) (name C) (type passive))))
    (libpart (lib usb-ftdi-ft230xs) (part FT230XS)
      (footprints
        (fp SSOP*3.9x4.9*P0.635mm*))
      (fields
        (field (name Reference) U)
        (field (name Value) FT230XS)
        (field (name Footprint) Package_SO:SSOP-16_3.9x4.9mm_P0.635mm))
      (pins
        (pin (num 1) (name TXD) (type output))
        (pin (num 2) (name ~RTS) (type output))
        (pin (num 3) (name VCCIO) (type power_in))
        (pin (num 4) (name RXD) (type input))
        (pin (num 5) (name GND) (type power_in))
        (pin (num 6) (name ~CTS) (type input))
        (pin (num 7) (name CBUS2) (type BiDi))
        (pin (num 8) (name USBDP) (type BiDi))
        (pin (num 9) (name USBDM) (type BiDi))
        (pin (num 10) (name 3V3OUT) (type power_out))
        (pin (num 11) (name ~RESET) (type input))
        (pin (num 12) (name VCC) (type power_in))
        (pin (num 13) (name GND) (type power_in))
        (pin (num 14) (name CBUS1) (type BiDi))
        (pin (num 15) (name CBUS0) (type BiDi))
        (pin (num 16) (name CBUS3) (type BiDi)))))
  (libraries
    (library (logical Connector)
      (uri "/Library/Application Support/kicad/library/Connector.lib"))
    (library (logical Device)
      (uri "/Library/Application Support/kicad/library/Device.lib"))
    (library (logical Switch)
      (uri "/Library/Application Support/kicad/library/Switch.lib"))
    (library (logical usb-ftdi-ft230xs)
      (uri /Users/kris/kicad/usb-ftdi-ft230xs/usb-ftdi-ft230xs.lib)))
  (nets
    (net (code 1) (name "Net-(R2-Pad1)")
      (node (ref R2) (pin 1))
      (node (ref U1) (pin 8)))
    (net (code 2) (name "Net-(R4-Pad1)")
      (node (ref R4) (pin 1))
      (node (ref U1) (pin 9)))
    (net (code 3) (name /5V)
      (node (ref J2) (pin 1))
      (node (ref SW1) (pin 3))
      (node (ref C2) (pin 2))
      (node (ref U1) (pin 12))
      (node (ref R3) (pin 2)))
    (net (code 4) (name /USM)
      (node (ref C3) (pin 1))
      (node (ref R4) (pin 2))
      (node (ref J2) (pin 2)))
    (net (code 5) (name /USP)
      (node (ref C1) (pin 1))
      (node (ref R2) (pin 2))
      (node (ref J2) (pin 3)))
    (net (code 6) (name /GND)
      (node (ref C3) (pin 2))
      (node (ref U1) (pin 13))
      (node (ref U1) (pin 5))
      (node (ref C1) (pin 2))
      (node (ref J2) (pin 4))
      (node (ref C2) (pin 1))
      (node (ref J1) (pin 6))
      (node (ref D1) (pin 1)))
    (net (code 7) (name "Net-(D1-Pad2)")
      (node (ref D1) (pin 2))
      (node (ref R3) (pin 1)))
    (net (code 8) (name "Net-(U1-Pad16)")
      (node (ref U1) (pin 16)))
    (net (code 9) (name "Net-(U1-Pad15)")
      (node (ref U1) (pin 15)))
    (net (code 10) (name "Net-(U1-Pad14)")
      (node (ref U1) (pin 14)))
    (net (code 11) (name "Net-(U1-Pad7)")
      (node (ref U1) (pin 7)))
    (net (code 12) (name /RXD)
      (node (ref U1) (pin 4))
      (node (ref J1) (pin 2)))
    (net (code 13) (name /TXD)
      (node (ref U1) (pin 1))
      (node (ref J1) (pin 3)))
    (net (code 14) (name /CTS)
      (node (ref U1) (pin 6))
      (node (ref J1) (pin 5)))
    (net (code 15) (name /VOUT)
      (node (ref SW1) (pin 2))
      (node (ref J1) (pin 4)))
    (net (code 16) (name /RTS)
      (node (ref J1) (pin 1))
      (node (ref R1) (pin 2)))
    (net (code 17) (name /3V3)
      (node (ref SW1) (pin 1))
      (node (ref U1) (pin 11))
      (node (ref U1) (pin 3))
      (node (ref U1) (pin 10)))
    (net (code 18) (name "Net-(R1-Pad1)")
      (node (ref U1) (pin 2))
      (node (ref R1) (pin 1)))))