(module 6W_PTH_SOCKET (layer F.Cu) (tedit 5E89D686)
  (fp_text reference REF** (at -10.4 0.02) (layer F.SilkS)
    (effects (font (size 1 1) (thickness 0.15)))
  )
  (fp_text value 6W_PTH_SOCKET (at -7.15 15.63) (layer F.Fab)
    (effects (font (size 1 1) (thickness 0.15)))
  )
  (fp_line (start -13.01 14.3) (end -13.01 11.7) (layer F.SilkS) (width 0.12))
  (fp_line (start -4.38 11.7) (end -4.38 14.3) (layer F.SilkS) (width 0.12))
  (fp_line (start -13.01 11.7) (end -13.01 9.1) (layer F.SilkS) (width 0.12))
  (fp_line (start -4.38 9.1) (end -4.38 11.7) (layer F.SilkS) (width 0.12))
  (fp_line (start -13.01 9.1) (end -4.38 9.1) (layer F.SilkS) (width 0.12))
  (fp_line (start -13.01 9.1) (end -13.01 6.5) (layer F.SilkS) (width 0.12))
  (fp_line (start -4.38 6.5) (end -4.38 9.1) (layer F.SilkS) (width 0.12))
  (fp_line (start -13.01 6.5) (end -13.01 3.9) (layer F.SilkS) (width 0.12))
  (fp_line (start -4.38 3.9) (end -4.38 6.5) (layer F.SilkS) (width 0.12))
  (fp_line (start -4.37 -1.31) (end -4.37 1.29) (layer F.SilkS) (width 0.12))
  (fp_line (start -13 1.29) (end -13 -1.31) (layer F.SilkS) (width 0.12))
  (fp_line (start -13 -1.31) (end -4.37 -1.31) (layer F.SilkS) (width 0.12))
  (fp_line (start -4.37 1.29) (end -4.37 3.89) (layer F.SilkS) (width 0.12))
  (fp_line (start -4.37 3.89) (end -13 3.89) (layer F.SilkS) (width 0.12))
  (fp_line (start -13 3.89) (end -13 1.29) (layer F.SilkS) (width 0.12))
  (fp_text user %R (at -10.42 0.02) (layer F.Fab)
    (effects (font (size 1 1) (thickness 0.15)))
  )
  (fp_line (start -13.01 14.3) (end -4.38 14.3) (layer F.SilkS) (width 0.12))
  (fp_line (start -4.37 -0.05) (end -2.79 -0.05) (layer F.SilkS) (width 0.12))
  (fp_line (start -4.29 2.52) (end -2.84 2.52) (layer F.SilkS) (width 0.12))
  (fp_line (start -4.37 5.2) (end -2.79 5.2) (layer F.SilkS) (width 0.12))
  (fp_line (start -4.37 7.67) (end -2.84 7.67) (layer F.SilkS) (width 0.12))
  (fp_line (start -4.37 10.42) (end -2.81 10.42) (layer F.SilkS) (width 0.12))
  (fp_line (start -4.37 12.94) (end -2.81 12.94) (layer F.SilkS) (width 0.12))
  (pad 1 smd rect (at -1.26 12.89) (size 2.5 1.7) (layers F.Cu F.Paste F.Mask))
  (pad 2 smd rect (at -1.26 10.35) (size 2.5 1.7) (layers F.Cu F.Paste F.Mask))
  (pad 3 smd rect (at -1.26 7.69) (size 2.5 1.7) (layers F.Cu F.Paste F.Mask))
  (pad 4 smd rect (at -1.26 5.15) (size 2.5 1.7) (layers F.Cu F.Paste F.Mask))
  (pad 6 smd rect (at -1.25 -0.06) (size 2.5 1.7) (layers F.Cu F.Paste F.Mask))
  (pad 5 smd rect (at -1.25 2.48) (size 2.5 1.7) (layers F.Cu F.Paste F.Mask))
)
