(module SW_SPDT-AYZ0102AGRLC (layer F.Cu) (tedit 5E86EA75)
  (descr http://www.ckswitches.com/media/1422/js.pdf)
  (tags "switch spdt")
  (attr smd)
  (fp_text reference REF** (at 0 -4.8) (layer F.SilkS)
    (effects (font (size 1 1) (thickness 0.15)))
  )
  (fp_text value SW_SPDT-AYZ0102AGRLC (at 0 -2.9) (layer F.Fab)
    (effects (font (size 1 1) (thickness 0.15)))
  )
  (fp_line (start -0.4 3.8) (end -0.4 3.8) (layer F.SilkS) (width 0.12))
  (fp_line (start 0.4 3.8) (end -0.4 3.8) (layer F.SilkS) (width 0.12))
  (fp_line (start 0.7 3.8) (end 0.7 3.8) (layer F.SilkS) (width 0.12))
  (fp_line (start 1.2 3.8) (end 0.7 3.8) (layer F.SilkS) (width 0.12))
  (fp_line (start -0.7 3.8) (end -0.7 3.8) (layer F.SilkS) (width 0.12))
  (fp_line (start -1.2 3.8) (end -0.7 3.8) (layer F.SilkS) (width 0.12))
  (fp_line (start -2 2.5) (end -2 2.5) (layer F.SilkS) (width 0.12))
  (fp_line (start -2 3) (end -2 2.5) (layer F.SilkS) (width 0.12))
  (fp_line (start 2 2.5) (end 2 2.5) (layer F.SilkS) (width 0.12))
  (fp_line (start 2 3) (end 2 2.5) (layer F.SilkS) (width 0.12))
  (fp_line (start 2 3.3) (end 2 3.3) (layer F.SilkS) (width 0.12))
  (fp_line (start 2 3.8) (end 2 3.3) (layer F.SilkS) (width 0.12))
  (fp_line (start 1.5 3.8) (end 1.5 3.8) (layer F.SilkS) (width 0.12))
  (fp_line (start 2 3.8) (end 1.5 3.8) (layer F.SilkS) (width 0.12))
  (fp_line (start -1.5 3.8) (end -1.5 3.8) (layer F.SilkS) (width 0.12))
  (fp_line (start -2 3.8) (end -1.5 3.8) (layer F.SilkS) (width 0.12))
  (fp_line (start -2 3.3) (end -2 3.3) (layer F.SilkS) (width 0.12))
  (fp_line (start -2 3.8) (end -2 3.3) (layer F.SilkS) (width 0.12))
  (fp_line (start -5 -2.25) (end -5 -2.25) (layer F.CrtYd) (width 0.05))
  (fp_line (start -3.5 -2.25) (end -5 -2.25) (layer F.CrtYd) (width 0.05))
  (fp_line (start -3.5 -4.5) (end -3.5 -2.25) (layer F.CrtYd) (width 0.05))
  (fp_line (start 3.5 -4.5) (end -3.5 -4.5) (layer F.CrtYd) (width 0.05))
  (fp_line (start 3.5 -2.25) (end 3.5 -4.5) (layer F.CrtYd) (width 0.05))
  (fp_line (start 5 -2.25) (end 3.5 -2.25) (layer F.CrtYd) (width 0.05))
  (fp_line (start 5 2.25) (end 5 -2.25) (layer F.CrtYd) (width 0.05))
  (fp_line (start 3.25 2.25) (end 5 2.25) (layer F.CrtYd) (width 0.05))
  (fp_line (start 3.25 2.5) (end 3.25 2.25) (layer F.CrtYd) (width 0.05))
  (fp_line (start 2.5 2.5) (end 3.25 2.5) (layer F.CrtYd) (width 0.05))
  (fp_line (start 2.5 4.25) (end 2.5 2.5) (layer F.CrtYd) (width 0.05))
  (fp_line (start -2.5 4.25) (end 2.5 4.25) (layer F.CrtYd) (width 0.05))
  (fp_line (start -2.5 2.75) (end -2.5 4.25) (layer F.CrtYd) (width 0.05))
  (fp_line (start -3.25 2.75) (end -2.5 2.75) (layer F.CrtYd) (width 0.05))
  (fp_line (start -3.25 2.25) (end -3.25 2.75) (layer F.CrtYd) (width 0.05))
  (fp_line (start -5 2.25) (end -3.25 2.25) (layer F.CrtYd) (width 0.05))
  (fp_line (start -5 -2.25) (end -5 2.25) (layer F.CrtYd) (width 0.05))
  (fp_line (start -2 1.8) (end -2 1.8) (layer F.Fab) (width 0.1))
  (fp_line (start -2 3.8) (end -2 1.8) (layer F.Fab) (width 0.1))
  (fp_line (start -0.5 3.8) (end -2 3.8) (layer F.Fab) (width 0.1))
  (fp_line (start -0.5 1.8) (end -0.5 3.8) (layer F.Fab) (width 0.1))
  (fp_line (start -4.6 1.9) (end -4.6 1.9) (layer F.SilkS) (width 0.12))
  (fp_line (start -2.9 1.9) (end -4.6 1.9) (layer F.SilkS) (width 0.12))
  (fp_line (start -2.9 2.2) (end -2.9 1.9) (layer F.SilkS) (width 0.12))
  (fp_line (start -2.1 2.2) (end -2.9 2.2) (layer F.SilkS) (width 0.12))
  (fp_line (start -2.1 1.9) (end -2.1 2.2) (layer F.SilkS) (width 0.12))
  (fp_line (start -0.4 1.9) (end -2.1 1.9) (layer F.SilkS) (width 0.12))
  (fp_line (start -0.4 2.2) (end -0.4 1.9) (layer F.SilkS) (width 0.12))
  (fp_line (start 0.4 2.2) (end -0.4 2.2) (layer F.SilkS) (width 0.12))
  (fp_line (start 0.4 1.9) (end 0.4 2.2) (layer F.SilkS) (width 0.12))
  (fp_line (start 2.1 1.9) (end 0.4 1.9) (layer F.SilkS) (width 0.12))
  (fp_line (start 2.1 2.2) (end 2.1 1.9) (layer F.SilkS) (width 0.12))
  (fp_line (start 2.9 2.2) (end 2.1 2.2) (layer F.SilkS) (width 0.12))
  (fp_line (start 2.9 1.9) (end 2.9 2.2) (layer F.SilkS) (width 0.12))
  (fp_line (start 4.6 1.9) (end 2.9 1.9) (layer F.SilkS) (width 0.12))
  (fp_line (start 2.8 1.8) (end 2.8 1.8) (layer F.Fab) (width 0.1))
  (fp_line (start 2.8 2.1) (end 2.8 1.8) (layer F.Fab) (width 0.1))
  (fp_line (start 2.2 2.1) (end 2.8 2.1) (layer F.Fab) (width 0.1))
  (fp_line (start 2.2 1.8) (end 2.2 2.1) (layer F.Fab) (width 0.1))
  (fp_line (start -2.8 1.8) (end -2.8 1.8) (layer F.Fab) (width 0.1))
  (fp_line (start -2.8 2.1) (end -2.8 1.8) (layer F.Fab) (width 0.1))
  (fp_line (start -2.2 2.1) (end -2.8 2.1) (layer F.Fab) (width 0.1))
  (fp_line (start -2.2 1.8) (end -2.2 2.1) (layer F.Fab) (width 0.1))
  (fp_line (start -0.3 1.8) (end -0.3 1.8) (layer F.Fab) (width 0.1))
  (fp_line (start -0.3 2.1) (end -0.3 1.8) (layer F.Fab) (width 0.1))
  (fp_line (start 0.3 2.1) (end -0.3 2.1) (layer F.Fab) (width 0.1))
  (fp_line (start 0.3 1.8) (end 0.3 2.1) (layer F.Fab) (width 0.1))
  (fp_line (start -1.8 -1.9) (end -1.8 -1.9) (layer F.SilkS) (width 0.12))
  (fp_line (start -0.7 -1.9) (end -1.8 -1.9) (layer F.SilkS) (width 0.12))
  (fp_line (start 0.7 -1.9) (end 0.7 -1.9) (layer F.SilkS) (width 0.12))
  (fp_line (start 1.8 -1.9) (end 0.7 -1.9) (layer F.SilkS) (width 0.12))
  (fp_line (start -4.6 -1.9) (end -3.2 -1.9) (layer F.SilkS) (width 0.12))
  (fp_line (start -4.6 1.9) (end -4.6 -1.9) (layer F.SilkS) (width 0.12))
  (fp_line (start 4.6 -1.9) (end 4.6 1.9) (layer F.SilkS) (width 0.12))
  (fp_line (start 3.2 -1.9) (end 4.6 -1.9) (layer F.SilkS) (width 0.12))
  (fp_line (start -1.5 1.8) (end -1.5 1.8) (layer F.Fab) (width 0.1))
  (fp_text user %R (at 0 0) (layer F.Fab)
    (effects (font (size 1 1) (thickness 0.15)))
  )
  (fp_line (start -4.5 1.8) (end -4.5 1.8) (layer F.Fab) (width 0.1))
  (fp_line (start -4.5 -1.8) (end -4.5 1.8) (layer F.Fab) (width 0.1))
  (fp_line (start -4.5 1.8) (end -4.5 1.8) (layer F.Fab) (width 0.1))
  (fp_line (start -4.4 1.8) (end -4.5 1.8) (layer F.Fab) (width 0.1))
  (fp_line (start 4.5 1.8) (end -4.4 1.8) (layer F.Fab) (width 0.1))
  (fp_line (start 4.5 -1.8) (end 4.5 1.8) (layer F.Fab) (width 0.1))
  (fp_line (start -4.5 -1.8) (end 4.5 -1.8) (layer F.Fab) (width 0.1))
  (pad "" np_thru_hole circle (at 1.5 0) (size 0.9 0.9) (drill 0.9) (layers *.Cu *.Mask))
  (pad "" np_thru_hole circle (at -1.5 0) (size 0.9 0.9) (drill 0.9) (layers *.Cu *.Mask))
  (pad 3 smd rect (at 2.5 -2.75) (size 1.25 2.5) (layers F.Cu F.Paste F.Mask))
  (pad 2 smd rect (at 0 -2.75) (size 1.25 2.5) (layers F.Cu F.Paste F.Mask))
  (pad 1 smd rect (at -2.5 -2.75) (size 1.25 2.5) (layers F.Cu F.Paste F.Mask))
  (model ${KISYS3DMOD}/Buttons_Switches_SMD.3dshapes/SW_SPDT_CK-JS102011SAQN.wrl
    (at (xyz 0 0 0))
    (scale (xyz 1 1 1))
    (rotate (xyz 0 0 0))
  )
)
